%YAML 1.1
%TAG !u! tag:unity3d.com,2011:
--- !u!21 &2100000
Material:
  serializedVersion: 8
  m_ObjectHideFlags: 0
  m_CorrespondingSourceObject: {fileID: 0}
  m_PrefabInstance: {fileID: 0}
  m_PrefabAsset: {fileID: 0}
  m_Name: White Flowers 01 LOD0
  m_Shader: {fileID: 4800000, guid: 8b3898feb1c663b44bd2242beb1f553d, type: 3}
  m_ValidKeywords:
  - _ALPHATEST
  - _BAKED_MESH_DATA
  - _COLOR_HSL
  - _LIGHTING_QUALITY_HIGH
  - _NORMALMAP
  - _SURFACE_MAP_PACKED
  - _TRANSLUCENCY
  - _WIND
  m_InvalidKeywords:
  - _DISABLE_DECALS
  - _INTERACTION
  - _INTERACTION_OFF
  - _LINKMAPTILINGOFFSET_ON
  - _OVERLAY
  m_LightmapFlags: 4
  m_EnableInstancingVariants: 1
  m_DoubleSidedGI: 0
  m_CustomRenderQueue: 2475
  stringTagMap: {}
  disabledShaderPasses:
  - TransparentBackface
  - DistortionVectors
  - TransparentDepthPrepass
  - TransparentDepthPostpass
  m_SavedProperties:
    serializedVersion: 3
    m_TexEnvs:
    - _Albedo:
        m_Texture: {fileID: 2800000, guid: 188f5c13c7594574dbcc7b4d09d096bf, type: 3}
        m_Scale: {x: 1, y: 1}
        m_Offset: {x: 0, y: 0}
    - _BumpMap:
        m_Texture: {fileID: 2800000, guid: bcebc9e749476b64c8ab911aaad17cfb, type: 3}
        m_Scale: {x: 1, y: 1}
        m_Offset: {x: 0, y: 0}
    - _DetailAlbedoMap:
        m_Texture: {fileID: 0}
        m_Scale: {x: 1, y: 1}
        m_Offset: {x: 0, y: 0}
    - _DetailMask:
        m_Texture: {fileID: 0}
        m_Scale: {x: 1, y: 1}
        m_Offset: {x: 0, y: 0}
    - _DetailNormalMap:
        m_Texture: {fileID: 0}
        m_Scale: {x: 1, y: 1}
        m_Offset: {x: 0, y: 0}
    - _EmissionMap:
        m_Texture: {fileID: 0}
        m_Scale: {x: 1, y: 1}
        m_Offset: {x: 0, y: 0}
    - _MainTex:
        m_Texture: {fileID: 2800000, guid: 188f5c13c7594574dbcc7b4d09d096bf, type: 3}
        m_Scale: {x: 1, y: 1}
        m_Offset: {x: 0, y: 0}
    - _MetallicGlossMap:
        m_Texture: {fileID: 2800000, guid: 796a8e16864f2c345b7450fd87af1e24, type: 3}
        m_Scale: {x: 1, y: 1}
        m_Offset: {x: 0, y: 0}
    - _NormalMap:
        m_Texture: {fileID: 2800000, guid: bcebc9e749476b64c8ab911aaad17cfb, type: 3}
        m_Scale: {x: 1, y: 1}
        m_Offset: {x: 0, y: 0}
    - _OcclusionMap:
        m_Texture: {fileID: 0}
        m_Scale: {x: 1, y: 1}
        m_Offset: {x: 0, y: 0}
    - _PackedBumpMap:
        m_Texture: {fileID: 2800000, guid: c0dd490138a0e6f4c8b2861958f70d8e, type: 3}
        m_Scale: {x: 1, y: 1}
        m_Offset: {x: 0, y: 0}
    - _PackedMap:
        m_Texture: {fileID: 2800000, guid: 796a8e16864f2c345b7450fd87af1e24, type: 3}
        m_Scale: {x: 1, y: 1}
        m_Offset: {x: 0, y: 0}
    - _ParallaxMap:
        m_Texture: {fileID: 0}
        m_Scale: {x: 1, y: 1}
        m_Offset: {x: 0, y: 0}
    - _STOSMap:
        m_Texture: {fileID: 2800000, guid: c7787a5397a0c9542be77987b39b935f, type: 3}
        m_Scale: {x: 1, y: 1}
        m_Offset: {x: 0, y: 0}
    - _ThicknessMap:
        m_Texture: {fileID: 0}
        m_Scale: {x: 1, y: 1}
        m_Offset: {x: 0, y: 0}
    m_Ints: []
    m_Floats:
    - _AlphaTest: 1
    - _AlphaTestThreshold: 0.5
    - _AlphaToMask: 0
    - _BakedMeshData: 1
    - _BendAmplitude: 0.056
    - _BendFrequency: 0.236
    - _BumpScale: 1
    - _ColorCorrection: 1
    - _ColorVariationSpread: 0.2
    - _Cull: 0
    - _CullFarDistance: 10
    - _CullFarStart: 10000
    - _Cutoff: 0.5
    - _Decals: 1
    - _DetailNormalMapScale: 1
    - _DiffuseContrast: 0
    - _DiffusionProfileHash: 3.5648174
    - _DoubleSidedMode: 0
    - _DoubleSidedNormalMode: 1
    - _DstBlend: 0
    - _EdgeFlutterAmplitude: 0.069
    - _EdgeFlutterFrequency: 0.209
    - _EdgeStiffness: 0.58
    - _EmissionAffectedByAlbedo: 0
    - _EmissionExposureWeight: 1
    - _EmissionIntensity: 0
    - _EnableTouchReact: 0
    - _EnableWetness: 1
    - _EnableWind: 1
    - _GlossMapScale: 0.837
    - _Glossiness: 0
    - _GlossyReflections: 1
    - _Interaction: 1
    - _InteractionDuration: 1.5
    - _InteractionPushDown: 0
    - _InteractionStrength: 0.7
    - _LeafStiffness: 0.562
    - _LeafSwingAmplitude: 0.066
    - _LeafSwingFrequency: 0.226
    - _LightingQuality: 0
    - _LinkMapTilingOffset: 1
    - _Metallic: 0
    - _Mode: 1
    - _MotionVectors: 1
    - _NatureRendererDistanceControl: 1
    - _NoBendingUnderPivot: 1
    - _NormalMapScale: 0.5
    - _ObjectHeight: 0.5
    - _ObjectPhaseIncidence: 1
    - _ObjectRadius: 0.5
    - _OcclusionStrength: 1
    - _Overlay: 1
    - _Parallax: 0.02
    - _PerspectiveCorrection: 0
    - _Porosity: 0.3
    - _RecalculateWindNormals: 0.5
    - _SampleAlphaOverlay: 1
    - _SampleColorOverlay: 1
    - _SmoothnessStrength: 1
    - _SmoothnessTextureChannel: 0
    - _SpecularHighlights: 1
    - _SrcBlend: 1
    - _StencilRef: 4
    - _StencilRefDepth: 0
    - _StencilRefDistortionVec: 4
    - _StencilRefGBuffer: 6
    - _StencilRefMV: 32
    - _StencilWriteMask: 6
    - _StencilWriteMaskDepth: 8
    - _StencilWriteMaskDistortionVec: 4
    - _StencilWriteMaskGBuffer: 14
    - _StencilWriteMaskMV: 40
    - _SurfaceMapMethod: 2
    - _TemporalAntiAliasing: 0
    - _TouchReactForce: 0.0001
    - _Translucency: 1
    - _TranslucencyAmbient: 1
    - _TranslucencyAttenuation: 1
    - _TranslucencyBlendMode: 0
    - _TranslucencyDistortion: 0.25
    - _TranslucencyScattering: 2
    - _TranslucencyShadow: 0.8
    - _TranslucencyStrength: 1
    - _TurbulenceStrength: 0
    - _UVSec: 0
    - _VertexNormalStrength: 1
    - _VerticalEdgeFlutter: 1
    - _Wetness: 0.685
    - _WetnessType: 0
    - _Wind: 1
    - _WindStrength: 1
    - _WindVariation: 0.3
    - _WorldPosPhaseIncidence: 1
    - _ZTestForward: 3
    - _ZTestGBuffer: 3
    - _ZWrite: 1
    - __strip__lod_crossfade: 1
    m_Colors:
    - _Color: {r: 1, g: 1, b: 1, a: 1}
    - _DiffusionProfileAsset: {r: 2.2888926e+38, g: 1.2389358e-26, b: 7.69327e-37,
        a: 0.00018220427}
    - _EmissionColor: {r: 0, g: 0, b: 0, a: 0}
    - _FloatingOriginOffset_Color: {r: 0, g: 0, b: 0, a: 0}
    - _GlossRemap: {r: 0, g: 0.49751973, b: 0, a: 0}
    - _HSL: {r: -0.04460901, g: 0.052045226, b: -0.07117352, a: 0}
    - _HSLVariation: {r: -0.084609, g: -0.047954783, b: -0.11135253, a: 0}
    - _OcclusionRemap: {r: 0, g: 1, b: 0, a: 0}
    - _ScaleFade: {r: 50, g: 20, b: 0, a: 0}
    - _ThicknessRemap: {r: 0, g: 1, b: 0, a: 0}
    - _Tint: {r: 1, g: 1, b: 1, a: 1}
    - _TintVariation: {r: 1, g: 1, b: 1, a: 1}
    - _TranslucencyColor: {r: 1, g: 1, b: 1, a: 1}
    - _TrunkBendFactor: {r: 1, g: 0, b: 0, a: 0}
    - _WindFade: {r: 50, g: 20, b: 0, a: 0}
  m_BuildTextureStacks: []
--- !u!114 &6737991563729502175
MonoBehaviour:
  m_ObjectHideFlags: 11
  m_CorrespondingSourceObject: {fileID: 0}
  m_PrefabInstance: {fileID: 0}
  m_PrefabAsset: {fileID: 0}
  m_GameObject: {fileID: 0}
  m_Enabled: 1
  m_EditorHideFlags: 0
  m_Script: {fileID: 11500000, guid: aa486462e6be1764e89c788ba30e61f7, type: 3}
  m_Name: 
  m_EditorClassIdentifier: 
  m_DiffusionProfileReferences:
  - {fileID: 11400000, guid: 78322c7f82657514ebe48203160e3f39, type: 2}
  m_MaterialReferences: []
